{
    "name": "Realistic_Electric_Trains_Fork",
    "version": "0.4.8",
    "title": "Realistic Electric Trains (Fork)",
    "author": "J_Aetherwing",
    "contact": "",
    "homepage": "https://forums.factorio.com/viewtopic.php?f=190&t=64946",
    "factorio_version": "1.1",
    "dependencies": [
        "base >= 1.1",
        "? FuelTrainStop >= 0.17.2",
        "(?) creative-mode-fix >= 0.0.30",
        "(?) creative-mod >= 1.0.4"
    ],
    "description": "This mod adds electric trains which require power delivered by overhead lines."
}
